The chronoverse
…
Tidy radiocarbon aggregation

ppnd |>
  mutate(cal = c14_calibrate(cra, error)) |>
  summarise(cal_sum = cal_sum(cal), .by = site) # or cal_density()

# A tibble: 83 × 2
   site                     cal_sum
   <chr>                      <cal>
 1 Tell 'Abr 3      c. 11185 cal BP
 2 Abu Gosh         c. 10140 cal BP
 3 Abu Hureyra      c. 12745 cal BP
 4 Abu Madi         c. 11235 cal BP
 5 Abu Salem        c. 12020 cal BP
 6 Ain Abu Nukhayla  c. 9535 cal BP
 7 Ain el-Kerkh     c. 10390 cal BP
 8 Ain Jammam        c. 8995 cal BP
 9 Akarçay           c. 9285 cal BP
10 Aswad            c. 10230 cal BP
# ℹ 73 more rows
…
